<define-tag pagetitle>DLA-3119-1 expat</define-tag>
<define-tag report_date>2022-9-25</define-tag>
<define-tag secrefs>CVE-2022-40674</define-tag>
<define-tag packages>expat</define-tag>
<define-tag isvulnerable>yes</define-tag>
<define-tag fixed>yes</define-tag>
<define-tag fixed-section>no</define-tag>

#use wml::debian::security

