<define-tag pagetitle>DLA-3173-1 linux-5.10</define-tag>
<define-tag report_date>2022-11-01</define-tag>
<define-tag secrefs>CVE-2021-4037 CVE-2022-0171 CVE-2022-1184 CVE-2022-1679 CVE-2022-2153 CVE-2022-2602 CVE-2022-2663 CVE-2022-2905 CVE-2022-3028 CVE-2022-3061 CVE-2022-3176 CVE-2022-3303 CVE-2022-3586 CVE-2022-3621 CVE-2022-3625 CVE-2022-3629 CVE-2022-3633 CVE-2022-3635 CVE-2022-3646 CVE-2022-3649 CVE-2022-20421 CVE-2022-20422 CVE-2022-39188 CVE-2022-39190 CVE-2022-39842 CVE-2022-40307 CVE-2022-41222 CVE-2022-41674 CVE-2022-42719 CVE-2022-42720 CVE-2022-42721 CVE-2022-42722 CVE-2022-43750 Bug#1017425 Bug#1019248</define-tag>
<define-tag packages>linux-5.10</define-tag>
<define-tag isvulnerable>yes</define-tag>
<define-tag fixed>yes</define-tag>
<define-tag fixed-section>no</define-tag>

#use wml::debian::security

