<define-tag pagetitle>DLA-3200-1 graphicsmagick</define-tag>
<define-tag report_date>2022-11-21</define-tag>
<define-tag secrefs>CVE-2022-1270</define-tag>
<define-tag packages>graphicsmagick</define-tag>
<define-tag isvulnerable>yes</define-tag>
<define-tag fixed>yes</define-tag>
<define-tag fixed-section>no</define-tag>

#use wml::debian::security

