<define-tag pagetitle>DSA-4944-1 krb5</define-tag>
<define-tag report_date>2021-7-25</define-tag>
<define-tag secrefs>CVE-2021-36222 Bug#991365</define-tag>
<define-tag packages>krb5</define-tag>
<define-tag isvulnerable>yes</define-tag>
<define-tag fixed>yes</define-tag>
<define-tag fixed-section>no</define-tag>

#use wml::debian::security



</dl>
