<define-tag pagetitle>DSA-5010-1 libxml-security-java</define-tag>
<define-tag report_date>2021-11-15</define-tag>
<define-tag secrefs>CVE-2021-40690 Bug#994569</define-tag>
<define-tag packages>libxml-security-java</define-tag>
<define-tag isvulnerable>yes</define-tag>
<define-tag fixed>yes</define-tag>
<define-tag fixed-section>no</define-tag>

#use wml::debian::security



</dl>
