<define-tag pagetitle>DLA-2629-1 libebml</define-tag>
<define-tag report_date>2021-4-18</define-tag>
<define-tag secrefs>CVE-2021-3405</define-tag>
<define-tag packages>libebml</define-tag>
<define-tag isvulnerable>yes</define-tag>
<define-tag fixed>yes</define-tag>
<define-tag fixed-section>no</define-tag>

#use wml::debian::security

