<define-tag pagetitle>DLA-2526-1 ruby-redcarpet</define-tag>
<define-tag report_date>2021-01-15</define-tag>
<define-tag secrefs>CVE-2020-26298 Bug#980057</define-tag>
<define-tag packages>ruby-redcarpet</define-tag>
<define-tag isvulnerable>yes</define-tag>
<define-tag fixed>yes</define-tag>
<define-tag fixed-section>no</define-tag>

#use wml::debian::security

