<define-tag pagetitle>DLA-2818-1 ffmpeg</define-tag>
<define-tag report_date>2021-11-14</define-tag>
<define-tag secrefs>CVE-2020-20445 CVE-2020-20446 CVE-2020-20451 CVE-2020-20453 CVE-2020-22037 CVE-2020-22041 CVE-2020-22044 CVE-2020-22046 CVE-2020-22048 CVE-2020-22049 CVE-2020-22054 CVE-2021-38171 CVE-2021-38291</define-tag>
<define-tag packages>ffmpeg</define-tag>
<define-tag isvulnerable>yes</define-tag>
<define-tag fixed>yes</define-tag>
<define-tag fixed-section>no</define-tag>

#use wml::debian::security

