<define-tag pagetitle>DLA-2701-1 openexr</define-tag>
<define-tag report_date>2021-07-03</define-tag>
<define-tag secrefs>CVE-2020-16587 CVE-2021-3474 CVE-2021-3475 CVE-2021-3476 CVE-2021-3477 CVE-2021-3478 CVE-2021-3479 CVE-2021-3598 CVE-2021-20296 CVE-2021-23215 CVE-2021-26260 Bug#986796 Bug#990450</define-tag>
<define-tag packages>openexr</define-tag>
<define-tag isvulnerable>yes</define-tag>
<define-tag fixed>yes</define-tag>
<define-tag fixed-section>no</define-tag>

#use wml::debian::security

