<define-tag pagetitle>DLA-2781-1 neutron</define-tag>
<define-tag report_date>2021-10-11</define-tag>
<define-tag secrefs>CVE-2021-40085</define-tag>
<define-tag packages>neutron</define-tag>
<define-tag isvulnerable>yes</define-tag>
<define-tag fixed>yes</define-tag>
<define-tag fixed-section>no</define-tag>

#use wml::debian::security
