#include "$(ENGLISHDIR)/events/merchandise.def"

<hr>

<mercentry>
  <vendor Antcom Shop>
  <URL "https://shop.spreadshirt.de/antcom/">
  <their_products <t-shirts>, <mugs>, <other_clothing>, <badges>>
  <their_last_update> <:=spokendate('2019-12-22'):>
  <their_langs <english>>
  <their_country <germany>>
  <their_delivery <international>>
</mercentry>

<mercentry>
  <vendor CafePress>
  <URL "https://www.cafepress.com/debianstuff">
  <their_products <t-shirts>, <polo_shirts>, <other_clothing>, <hats>, <mouse_pads>, <mugs>, <toys>, <bags>, <pillowcases>, <badges>, <stickers>, <cards>, <others>>
  <their_last_update> <:=spokendate('2019-12-22'):>
  <their_langs <english>>
  <their_country <usa>>
  <their_delivery <no-international>. <more-information "https://www.cafepress.com/p/help-buying-ordering#5">>
  <donates>
</mercentry>

<mercentry>
  <vendor Debian France>
  <URL "https://enventelibre.org/en/42-debian">
  <their_products <t-shirts>, <polo_shirts>, <stickers>, <other_clothing>, <mugs>, <usb-sticks>, <others>>
  <their_last_update> <:=spokendate('2019-12-22'):>
  <their_langs <french>, <english>>
  <their_country <france>>
  <their_delivery <international>>
  <money-events>
  <donates>
</mercentry>

<mercentry>
  <vendor FreeWear.org>
  <URL "https://www.freewear.org/?org=Debian">
  <their_products <t-shirts>, <polo_shirts>, <other_clothing>, <mugs>>
  <their_last_update> <:=spokendate('2019-12-22'):>
  <their_langs <english>>
  <their_country <spain>>
  <their_delivery <international>>
  <donates>
</mercentry>

<mercentry>
  <vendor HELLOTUX>
  <URL "https://www.hellotux.com/debian">
  <their_products <t-shirts>, <polo_shirts>, <other_clothing>, <usb-sticks>>
  <their_last_update> <:=spokendate('2019-12-22'):>
  <their_langs <english>>
  <their_country <hungary>>
  <their_delivery <international>>
</mercentry>

<mercentry>
 <vendor Koszulkomat>
 <URL "https://www.koszulkomat.eu/tshirt/search?s=debian">
 <their_products <t-shirts>, <pillowcases>>
 <their_last_update> <:=spokendate('2019-12-22'):>
 <their_langs <polish>>
 <their_country <poland>>
 <their_delivery <no-international>, <europe>>
</mercentry>

# added, see <9aee95f3-d99e-5db6-88f6-5aafbef22bd1@gmx.de>
<mercentry>
  <vendor Sticker Mule>
  <URL "https://www.stickermule.com/unixstickers">
  <their_products <stickers>>
  <their_last_update> <:=spokendate('2019-12-22'):>
  <their_langs <english>>
  <their_country <usa>>
  <their_delivery <international>>
</mercentry>

