<define-tag pagetitle>DSA-5349-1 gnutls28</define-tag>
<define-tag report_date>2023-2-14</define-tag>
<define-tag secrefs>CVE-2023-0361</define-tag>
<define-tag packages>gnutls28</define-tag>
<define-tag isvulnerable>yes</define-tag>
<define-tag fixed>yes</define-tag>
<define-tag fixed-section>no</define-tag>

#use wml::debian::security



</dl>
