<define-tag pagetitle>DLA-780-1 libav</define-tag>
<define-tag report_date>2017-1-12</define-tag>
<define-tag secrefs>CVE-2016-7424</define-tag>
<define-tag packages>libav</define-tag>
<define-tag isvulnerable>yes</define-tag>
<define-tag fixed>yes</define-tag>
<define-tag fixed-section>no</define-tag>

#use wml::debian::security

