<define-tag pagetitle>DLA-2308-1 libopenmpt</define-tag>
<define-tag report_date>2020-08-02</define-tag>
<define-tag secrefs>CVE-2019-17113</define-tag>
<define-tag packages>libopenmpt</define-tag>
<define-tag isvulnerable>yes</define-tag>
<define-tag fixed>yes</define-tag>
<define-tag fixed-section>no</define-tag>

#use wml::debian::security

