<define-tag pagetitle>DLA-2231-1 sane-backends</define-tag>
<define-tag report_date>2020-05-31</define-tag>
<define-tag secrefs>CVE-2020-12867</define-tag>
<define-tag packages>sane-backends</define-tag>
<define-tag isvulnerable>yes</define-tag>
<define-tag fixed>yes</define-tag>
<define-tag fixed-section>no</define-tag>

#use wml::debian::security

