<define-tag pagetitle>DLA-1445-3 busybox</define-tag>
<define-tag report_date>2018-8-3</define-tag>
<define-tag packages>busybox</define-tag>
<define-tag isvulnerable>yes</define-tag>
<define-tag fixed>yes</define-tag>
<define-tag fixed-section>no</define-tag>

#use wml::debian::security

