<define-tag pagetitle>DLA-1575-1 thunderbird</define-tag>
<define-tag report_date>2018-11-12</define-tag>
<define-tag secrefs>CVE-2017-16541 CVE-2018-5156 CVE-2018-5187 CVE-2018-12361 CVE-2018-12367 CVE-2018-12371 CVE-2018-12376 CVE-2018-12377 CVE-2018-12378 CVE-2018-12379 CVE-2018-12383 CVE-2018-12385 CVE-2018-12389 CVE-2018-12390 CVE-2018-12392 CVE-2018-12393</define-tag>
<define-tag packages>thunderbird</define-tag>
<define-tag isvulnerable>yes</define-tag>
<define-tag fixed>yes</define-tag>
<define-tag fixed-section>no</define-tag>

#use wml::debian::security

