<define-tag pagetitle>DSA-4480-1 redis</define-tag>
<define-tag report_date>2019-7-11</define-tag>
<define-tag secrefs>CVE-2019-10192 CVE-2019-10193</define-tag>
<define-tag packages>redis</define-tag>
<define-tag isvulnerable>yes</define-tag>
<define-tag fixed>yes</define-tag>
<define-tag fixed-section>no</define-tag>

#use wml::debian::security



</dl>
