<define-tag pagetitle>DSA-5309-1 wpewebkit</define-tag>
<define-tag report_date>2022-12-31</define-tag>
<define-tag secrefs>CVE-2022-42852 CVE-2022-42856 CVE-2022-42867 CVE-2022-46692 CVE-2022-46698 CVE-2022-46699 CVE-2022-46700</define-tag>
<define-tag packages>wpewebkit</define-tag>
<define-tag isvulnerable>yes</define-tag>
<define-tag fixed>yes</define-tag>
<define-tag fixed-section>no</define-tag>

#use wml::debian::security



</dl>
