<define-tag pagetitle>DSA-5270-1 ntfs-3g</define-tag>
<define-tag report_date>2022-11-04</define-tag>
<define-tag secrefs>CVE-2022-40284</define-tag>
<define-tag packages>ntfs-3g</define-tag>
<define-tag isvulnerable>yes</define-tag>
<define-tag fixed>yes</define-tag>
<define-tag fixed-section>no</define-tag>

#use wml::debian::security



</dl>
