<define-tag pagetitle>DLA-1940-1 linux-4.9</define-tag>
<define-tag report_date>2019-10-01</define-tag>
<define-tag secrefs>CVE-2019-14821 CVE-2019-14835 CVE-2019-15117 CVE-2019-15118 CVE-2019-15902</define-tag>
<define-tag packages>linux-4.9</define-tag>
<define-tag isvulnerable>yes</define-tag>
<define-tag fixed>yes</define-tag>
<define-tag fixed-section>no</define-tag>

#use wml::debian::security

