<define-tag pagetitle>DLA-1837-2 rdesktop</define-tag>
<define-tag report_date>2019-07-01</define-tag>
<define-tag secrefs>Bug#930511</define-tag>
<define-tag packages>rdesktop</define-tag>
<define-tag isvulnerable>yes</define-tag>
<define-tag fixed>yes</define-tag>
<define-tag fixed-section>no</define-tag>

#use wml::debian::security

