<define-tag pagetitle>DLA-1840-1 golang-go.crypto</define-tag>
<define-tag report_date>2019-06-30</define-tag>
<define-tag secrefs>CVE-2019-11840</define-tag>
<define-tag packages>golang-go.crypto</define-tag>
<define-tag isvulnerable>yes</define-tag>
<define-tag fixed>yes</define-tag>
<define-tag fixed-section>no</define-tag>

#use wml::debian::security

