<define-tag pagetitle>DLA-649-1 python-django</define-tag>
<define-tag report_date>2016-10-6</define-tag>
<define-tag secrefs>CVE-2016-7401</define-tag>
<define-tag packages>python-django</define-tag>
<define-tag isvulnerable>yes</define-tag>
<define-tag fixed>yes</define-tag>
<define-tag fixed-section>no</define-tag>

#use wml::debian::security

